{
  "page": 1,
  "total_results": 40,
  "total_pages": 2,
  "results": [
    {
      "vote_count": 1111,
      "id": 299534,
      "video": false,
      "vote_average": 8.8,
      "title": "Avengers: Endgame",
      "popularity": 857.525,
      "poster_path": "\/or06FN3Dka5tukK1e9sl16pB3iy.jpg",
      "original_language": "en",
      "original_title": "Avengers: Endgame",
      "genre_ids": [
        12,
        878,
        28
      ],
      "backdrop_path": "\/7RyHsO4yDXtBv1zUU3mTpHeQ0d5.jpg",
      "adult": false,
      "overview": "After the devastating events of Avengers: Infinity War, the universe is in ruins due to the efforts of the Mad Titan, Thanos. With the help of remaining allies, the Avengers must assemble once more in order to undo Thanos' actions and restore order to the universe once and for all, no matter what consequences may be in store.",
      "release_date": "2019-04-24"
    },
    {
      "vote_count": 4173,
      "id": 299537,
      "video": false,
      "vote_average": 7.1,
      "title": "Captain Marvel",
      "popularity": 360.189,
      "poster_path": "\/AtsgWhDnHTq68L0lLsUrCnM7TjG.jpg",
      "original_language": "en",
      "original_title": "Captain Marvel",
      "genre_ids": [
        28,
        12,
        878
      ],
      "backdrop_path": "\/w2PMyoyLU22YvrGK3smVM9fW1jj.jpg",
      "adult": false,
      "overview": "The story follows Carol Danvers as she becomes one of the universe’s most powerful heroes when Earth is caught in the middle of a galactic war between two alien races. Set in the 1990s, Captain Marvel is an all-new adventure from a previously unseen period in the history of the Marvel Cinematic Universe.",
      "release_date": "2019-03-06"
    },
    {
      "vote_count": 242,
      "id": 456740,
      "video": false,
      "vote_average": 5.2,
      "title": "Hellboy",
      "popularity": 267.105,
      "poster_path": "\/bk8LyaMqUtaQ9hUShuvFznQYQKR.jpg",
      "original_language": "en",
      "original_title": "Hellboy",
      "genre_ids": [
        28,
        12,
        14
      ],
      "backdrop_path": "\/5BkSkNtfrnTuKOtTaZhl8avn4wU.jpg",
      "adult": false,
      "overview": "Hellboy comes to England, where he must defeat Nimue, Merlin's consort and the Blood Queen. But their battle will bring about the end of the world, a fate he desperately tries to turn away.",
      "release_date": "2019-04-10"
    },
    {
      "vote_count": 12891,
      "id": 299536,
      "video": false,
      "vote_average": 8.3,
      "title": "Avengers: Infinity War",
      "popularity": 261.145,
      "poster_path": "\/7WsyChQLEftFiDOVTGkv3hFpyyt.jpg",
      "original_language": "en",
      "original_title": "Avengers: Infinity War",
      "genre_ids": [
        12,
        28,
        14
      ],
      "backdrop_path": "\/bOGkgRGdhrBYJSLpXaxhXVstddV.jpg",
      "adult": false,
      "overview": "As the Avengers and their allies have continued to protect the world from threats too large for any one hero to handle, a new danger has emerged from the cosmic shadows: Thanos. A despot of intergalactic infamy, his goal is to collect all six Infinity Stones, artifacts of unimaginable power, and use them to inflict his twisted will on all of reality. Everything the Avengers have fought for has led up to this moment - the fate of Earth and existence itself has never been more uncertain.",
      "release_date": "2018-04-25"
    },
    {
      "vote_count": 549,
      "id": 537915,
      "video": false,
      "vote_average": 6.5,
      "title": "After",
      "popularity": 244.718,
      "poster_path": "\/u3B2YKUjWABcxXZ6Nm9h10hLUbh.jpg",
      "original_language": "en",
      "original_title": "After",
      "genre_ids": [
        18,
        10749
      ],
      "backdrop_path": "\/8lESY7UGpOsbL2caib9Qe4bOebF.jpg",
      "adult": false,
      "overview": "A young woman falls for a guy with a dark secret and the two embark on a rocky relationship.",
      "release_date": "2019-04-11"
    },
    {
      "vote_count": 1219,
      "id": 287947,
      "video": false,
      "vote_average": 7.2,
      "title": "Shazam!",
      "popularity": 188.88,
      "poster_path": "\/xnopI5Xtky18MPhK40cZAGAOVeV.jpg",
      "original_language": "en",
      "original_title": "Shazam!",
      "genre_ids": [
        35,
        12,
        14
      ],
      "backdrop_path": "\/bi4jh0Kt0uuZGsGJoUUfqmbrjQg.jpg",
      "adult": false,
      "overview": "A boy is given the ability to become an adult superhero in times of need with a single magic word.",
      "release_date": "2019-03-23"
    },
    {
      "vote_count": 11,
      "id": 495925,
      "video": false,
      "vote_average": 6.4,
      "title": "Doraemon the Movie: Nobita's Treasure Island",
      "popularity": 159.76,
      "poster_path": "\/cmJ71gdZxCqkMUvGwWgSg3MK7pC.jpg",
      "original_language": "ja",
      "original_title": "映画ドラえもん のび太の宝島",
      "genre_ids": [
        16
      ],
      "backdrop_path": "\/8OamoIWfC9zmhwhh1PPaBcDoQaH.jpg",
      "adult": false,
      "overview": "The story is based on Robert Louis Stevenson's Treasure Island novel.",
      "release_date": "2018-03-03"
    },
    {
      "vote_count": 1587,
      "id": 166428,
      "video": false,
      "vote_average": 7.6,
      "title": "How to Train Your Dragon: The Hidden World",
      "popularity": 149.674,
      "poster_path": "\/xvx4Yhf0DVH8G4LzNISpMfFBDy2.jpg",
      "original_language": "en",
      "original_title": "How to Train Your Dragon: The Hidden World",
      "genre_ids": [
        16,
        10751,
        12
      ],
      "backdrop_path": "\/lFwykSz3Ykj1Q3JXJURnGUTNf1o.jpg",
      "adult": false,
      "overview": "As Hiccup fulfills his dream of creating a peaceful dragon utopia, Toothless’ discovery of an untamed, elusive mate draws the Night Fury away. When danger mounts at home and Hiccup’s reign as village chief is tested, both dragon and rider must make impossible decisions to save their kind.",
      "release_date": "2019-01-03"
    },
    {
      "vote_count": 18942,
      "id": 24428,
      "video": false,
      "vote_average": 7.6,
      "title": "The Avengers",
      "popularity": 149.613,
      "poster_path": "\/cezWGskPY5x7GaglTTRN4Fugfb8.jpg",
      "original_language": "en",
      "original_title": "The Avengers",
      "genre_ids": [
        878,
        28,
        12
      ],
      "backdrop_path": "\/hbn46fQaRmlpBuUrEiFqv0GDL6Y.jpg",
      "adult": false,
      "overview": "When an unexpected enemy emerges and threatens global safety and security, Nick Fury, director of the international peacekeeping agency known as S.H.I.E.L.D., finds himself in need of a team to pull the world back from the brink of disaster. Spanning the globe, a daring recruitment effort begins!",
      "release_date": "2012-04-25"
    },
    {
      "vote_count": 158,
      "id": 487297,
      "video": false,
      "vote_average": 5.6,
      "title": "What Men Want",
      "popularity": 138.508,
      "poster_path": "\/30IiwvIRqPGjUV0bxJkZfnSiCL.jpg",
      "original_language": "en",
      "original_title": "What Men Want",
      "genre_ids": [
        35,
        14,
        10749
      ],
      "backdrop_path": "\/umecegsPpKr2ZXA62Da9CQBVoIO.jpg",
      "adult": false,
      "overview": "Magically able to hear what men are thinking, a sports agent uses her newfound ability to turn the tables on her overbearing male colleagues.",
      "release_date": "2019-02-08"
    },
    {
      "vote_count": 143,
      "id": 480414,
      "video": false,
      "vote_average": 5.5,
      "title": "The Curse of La Llorona",
      "popularity": 134.793,
      "poster_path": "\/jhZlXSnFUpNiLAek9EkPrtLEWQI.jpg",
      "original_language": "en",
      "original_title": "The Curse of La Llorona",
      "genre_ids": [
        53,
        27,
        9648
      ],
      "backdrop_path": "\/u2vGggeMPAkhEtD7bYGfeThsQiM.jpg",
      "adult": false,
      "overview": "A social worker dealing with the disappearance of two children fears for her own family after beginning the investigation.",
      "release_date": "2019-04-17"
    },
    {
      "vote_count": 2421,
      "id": 450465,
      "video": false,
      "vote_average": 6.5,
      "title": "Glass",
      "popularity": 119.255,
      "poster_path": "\/svIDTNUoajS8dLEo7EosxvyAsgJ.jpg",
      "original_language": "en",
      "original_title": "Glass",
      "genre_ids": [
        53,
        9648,
        18,
        14,
        878
      ],
      "backdrop_path": "\/lvjscO8wmpEbIfOEZi92Je8Ktlg.jpg",
      "adult": false,
      "overview": "In a series of escalating encounters, security guard David Dunn uses his supernatural abilities to track Kevin Wendell Crumb, a disturbed man who has twenty-four personalities. Meanwhile, the shadowy presence of Elijah Price emerges as an orchestrator who holds secrets critical to both men.",
      "release_date": "2019-01-16"
    },
    {
      "vote_count": 11725,
      "id": 284054,
      "video": false,
      "vote_average": 7.4,
      "title": "Black Panther",
      "popularity": 111.267,
      "poster_path": "\/uxzzxijgPIY7slzFvMotPv8wjKA.jpg",
      "original_language": "en",
      "original_title": "Black Panther",
      "genre_ids": [
        28,
        12,
        14,
        878
      ],
      "backdrop_path": "\/6ELJEzQJ3Y45HczvreC3dg0GV5R.jpg",
      "adult": false,
      "overview": "King T'Challa returns home from America to the reclusive, technologically advanced African nation of Wakanda to serve as his country's new leader. However, T'Challa soon finds that he is challenged for the throne by factions within his own country as well as without. Using powers reserved to Wakandan kings, T'Challa assumes the Black Panther mantel to join with girlfriend Nakia, the queen-mother, his princess-kid sister, members of the Dora Milaje (the Wakandan 'special forces') and an American secret agent, to prevent Wakanda from being dragged into a world war.",
      "release_date": "2018-02-13"
    },
    {
      "vote_count": 12845,
      "id": 99861,
      "video": false,
      "vote_average": 7.3,
      "title": "Avengers: Age of Ultron",
      "popularity": 107.148,
      "poster_path": "\/t90Y3G8UGQp0f0DrP60wRu9gfrH.jpg",
      "original_language": "en",
      "original_title": "Avengers: Age of Ultron",
      "genre_ids": [
        28,
        12,
        878
      ],
      "backdrop_path": "\/rFtsE7Lhlc2jRWF7SRAU0fvrveQ.jpg",
      "adult": false,
      "overview": "When Tony Stark tries to jumpstart a dormant peacekeeping program, things go awry and Earth’s Mightiest Heroes are put to the ultimate test as the fate of the planet hangs in the balance. As the villainous Ultron emerges, it is up to The Avengers to stop him from enacting his terrible plans, and soon uneasy alliances and unexpected action pave the way for an epic and unique global adventure.",
      "release_date": "2015-04-22"
    },
    {
      "vote_count": 62,
      "id": 376865,
      "video": false,
      "vote_average": 6.3,
      "title": "High Life",
      "popularity": 99.731,
      "poster_path": "\/wElOvH7H6sLElsTOLu1MY6oWRUx.jpg",
      "original_language": "en",
      "original_title": "High Life",
      "genre_ids": [
        878,
        27,
        12,
        18
      ],
      "backdrop_path": "\/6gHdAO1Lvk9bjzhY4hX3wVRkAhF.jpg",
      "adult": false,
      "overview": "Monte and his baby daughter are the last survivors of a damned and dangerous mission to the outer reaches of the solar system. They must now rely on each other to survive as they hurtle toward the oblivion of a black hole.",
      "release_date": "2018-11-07"
    },
    {
      "vote_count": 12009,
      "id": 283995,
      "video": false,
      "vote_average": 7.7,
      "title": "Guardians of the Galaxy Vol. 2",
      "popularity": 93.516,
      "poster_path": "\/y4MBh0EjBlMuOzv9axM4qJlmhzz.jpg",
      "original_language": "en",
      "original_title": "Guardians of the Galaxy Vol. 2",
      "genre_ids": [
        28,
        12,
        35,
        878
      ],
      "backdrop_path": "\/aJn9XeesqsrSLKcHfHP4u5985hn.jpg",
      "adult": false,
      "overview": "The Guardians must fight to keep their newfound family together as they unravel the mysteries of Peter Quill's true parentage.",
      "release_date": "2017-04-19"
    },
    {
      "vote_count": 2064,
      "id": 424783,
      "video": false,
      "vote_average": 6.4,
      "title": "Bumblebee",
      "popularity": 91.305,
      "poster_path": "\/fw02ONlDhrYjTSZV8XO6hhU3ds3.jpg",
      "original_language": "en",
      "original_title": "Bumblebee",
      "genre_ids": [
        28,
        12,
        878
      ],
      "backdrop_path": "\/wtZj5nn6hVwgakPdg6y6gm3eFXU.jpg",
      "adult": false,
      "overview": "On the run in the year 1987, Bumblebee finds refuge in a junkyard in a small Californian beach town. Charlie, on the cusp of turning 18 and trying to find her place in the world, discovers Bumblebee, battle-scarred and broken.  When Charlie revives him, she quickly learns this is no ordinary yellow VW bug.",
      "release_date": "2018-12-15"
    },
    {
      "vote_count": 981,
      "id": 329996,
      "video": false,
      "vote_average": 6.7,
      "title": "Dumbo",
      "popularity": 90.367,
      "poster_path": "\/A7XkpLfNH0El2yyDLc4b0KLAKvE.jpg",
      "original_language": "en",
      "original_title": "Dumbo",
      "genre_ids": [
        12,
        10751,
        14
      ],
      "backdrop_path": "\/5tFt6iuGnKapHl5tw0X0cKcnuVo.jpg",
      "adult": false,
      "overview": "A young elephant, whose oversized ears enable him to fly, helps save a struggling circus, but when the circus plans a new venture, Dumbo and his friends discover dark secrets beneath its shiny veneer.",
      "release_date": "2019-03-27"
    },
    {
      "vote_count": 1155,
      "id": 458723,
      "video": false,
      "vote_average": 7.2,
      "title": "Us",
      "popularity": 88.473,
      "poster_path": "\/ux2dU1jQ2ACIMShzB3yP93Udpzc.jpg",
      "original_language": "en",
      "original_title": "Us",
      "genre_ids": [
        53,
        27
      ],
      "backdrop_path": "\/jNUCddkM1fjYcFIcEwFjc7s2H4V.jpg",
      "adult": false,
      "overview": "Husband and wife Gabe and Adelaide Wilson take their kids to their beach house expecting to unplug and unwind with friends. But as night descends, their serenity turns to tension and chaos when some shocking visitors arrive uninvited.",
      "release_date": "2019-03-14"
    },
    {
      "vote_count": 5717,
      "id": 363088,
      "video": false,
      "vote_average": 7,
      "title": "Ant-Man and the Wasp",
      "popularity": 87.269,
      "poster_path": "\/eivQmS3wqzqnQWILHLc4FsEfcXP.jpg",
      "original_language": "en",
      "original_title": "Ant-Man and the Wasp",
      "genre_ids": [
        28,
        12,
        878,
        35,
        10751
      ],
      "backdrop_path": "\/6P3c80EOm7BodndGBUAJHHsHKrp.jpg",
      "adult": false,
      "overview": "Just when his time under house arrest is about to end, Scott Lang once again puts his freedom at risk to help Hope van Dyne and Dr. Hank Pym dive into the quantum realm and try to accomplish, against time and any chance of success, a very dangerous rescue mission.",
      "release_date": "2018-07-04"
    }
  ]
}