{
  "page": 2,
  "total_results": 40,
  "total_pages": 2,
  "results": [
    {
      "vote_count": 946,
      "id": 522681,
      "video": false,
      "vote_average": 6.3,
      "title": "Escape Room",
      "popularity": 86.971,
      "poster_path": "\/8Ls1tZ6qjGzfGHjBB7ihOnf7f0b.jpg",
      "original_language": "en",
      "original_title": "Escape Room",
      "genre_ids": [
        53
      ],
      "backdrop_path": "\/mWLljCmpqlcYQh7uh51BBMwCZwN.jpg",
      "adult": false,
      "overview": "Six strangers find themselves in circumstances beyond their control, and must use their wits to survive.",
      "release_date": "2019-01-03"
    },
    {
      "vote_count": 17386,
      "id": 118340,
      "video": false,
      "vote_average": 7.9,
      "title": "Guardians of the Galaxy",
      "popularity": 86.351,
      "poster_path": "\/y31QB9kn3XSudA15tV7UWQ9XLuW.jpg",
      "original_language": "en",
      "original_title": "Guardians of the Galaxy",
      "genre_ids": [
        28,
        878,
        12
      ],
      "backdrop_path": "\/bHarw8xrmQeqf3t8HpuMY7zoK4x.jpg",
      "adult": false,
      "overview": "Light years from Earth, 26 years after being abducted, Peter Quill finds himself the prime target of a manhunt after discovering an orb wanted by Ronan the Accuser.",
      "release_date": "2014-07-30"
    },
    {
      "vote_count": 10,
      "id": 543103,
      "video": false,
      "vote_average": 4.4,
      "title": "Kamen Rider Heisei Generations FOREVER",
      "popularity": 83.959,
      "poster_path": "\/6sOFQDlkY6El1B2P5gklzJfVdsT.jpg",
      "original_language": "ja",
      "original_title": "仮面ライダー平成ジェネレーションズFOREVER",
      "genre_ids": [
        28,
        12,
        878
      ],
      "backdrop_path": "\/uufTqD2CSn1NqL3cXEl4Vp3bCav.jpg",
      "adult": false,
      "overview": "In the world of Sougo Tokiwa and Sento Kiryu, their \"companions\" are losing their memories one after the other as they're replaced by other people. The Super Time Jacker, Tid , appears before them. He orders his powerful underlings, Another Double and Another Den-O, to pursue a young boy called Shingo. While fighting to protect Shingo, Sougo meets Ataru, a young man who loves Riders, but Ataru says that Kamen Riders aren't real. What is the meaning of those words? While the mystery deepens, the true enemy that Sougo and Sento must defeat appears in the Kuriogatake mountain...",
      "release_date": "2018-12-22"
    },
    {
      "vote_count": 594,
      "id": 512196,
      "video": false,
      "vote_average": 6.1,
      "title": "Happy Death Day 2U",
      "popularity": 76.626,
      "poster_path": "\/4tdnePOkOOzwuGPEOAHp8UA4vqx.jpg",
      "original_language": "en",
      "original_title": "Happy Death Day 2U",
      "genre_ids": [
        27,
        9648,
        53,
        878,
        35
      ],
      "backdrop_path": "\/dhNJHBDacrZjSPtwaiwp3idpzxU.jpg",
      "adult": false,
      "overview": "Collegian Tree Gelbman wakes up in horror to learn that she's stuck in a parallel universe. Her boyfriend Carter is now with someone else, and her friends and fellow students seem to be completely different versions of themselves. When Tree discovers that Carter's roommate has been altering time, she finds herself once again the target of a masked killer. When the psychopath starts to go after her inner circle, Tree soon realizes that she must die over and over again to save everyone.",
      "release_date": "2019-02-13"
    },
    {
      "vote_count": 3429,
      "id": 324857,
      "video": false,
      "vote_average": 8.4,
      "title": "Spider-Man: Into the Spider-Verse",
      "popularity": 74.119,
      "poster_path": "\/iiZZdoQBEYBv6id8su7ImL0oCbD.jpg",
      "original_language": "en",
      "original_title": "Spider-Man: Into the Spider-Verse",
      "genre_ids": [
        28,
        12,
        16,
        878,
        35
      ],
      "backdrop_path": "\/7d6EY00g1c39SGZOoCJ5Py9nNth.jpg",
      "adult": false,
      "overview": "Miles Morales is juggling his life between being a high school student and being a spider-man. When Wilson \"Kingpin\" Fisk uses a super collider, others from across the Spider-Verse are transported to this dimension.",
      "release_date": "2018-12-07"
    },
    {
      "vote_count": 10858,
      "id": 284053,
      "video": false,
      "vote_average": 7.5,
      "title": "Thor: Ragnarok",
      "popularity": 70.62,
      "poster_path": "\/rzRwTcFvttcN1ZpX2xv4j3tSdJu.jpg",
      "original_language": "en",
      "original_title": "Thor: Ragnarok",
      "genre_ids": [
        28,
        12,
        35,
        14
      ],
      "backdrop_path": "\/kaIfm5ryEOwYg8mLbq8HkPuM1Fo.jpg",
      "adult": false,
      "overview": "Thor is imprisoned on the other side of the universe and finds himself in a race against time to get back to Asgard to stop Ragnarok, the destruction of his home-world and the end of Asgardian civilization, at the hands of an all-powerful new threat, the ruthless Hela.",
      "release_date": "2017-10-25"
    },
    {
      "vote_count": 7293,
      "id": 920,
      "video": false,
      "vote_average": 6.7,
      "title": "Cars",
      "popularity": 68.842,
      "poster_path": "\/5damnMcRFKSjhCirgX3CMa88MBj.jpg",
      "original_language": "en",
      "original_title": "Cars",
      "genre_ids": [
        16,
        12,
        35,
        10751
      ],
      "backdrop_path": "\/a1MlbLBk5Sy6YvMbSuKfwGlDVlb.jpg",
      "adult": false,
      "overview": "Lightning McQueen, a hotshot rookie race car driven to succeed, discovers that life is about the journey, not the finish line, when he finds himself unexpectedly detoured in the sleepy Route 66 town of Radiator Springs. On route across the country to the big Piston Cup Championship in California to compete against two seasoned pros, McQueen gets to know the town's offbeat characters.",
      "release_date": "2006-06-08"
    },
    {
      "vote_count": 4,
      "id": 576393,
      "video": false,
      "vote_average": 6.5,
      "title": "Fall in Love at First Kiss",
      "popularity": 67.239,
      "poster_path": "\/wtaSH8MfJSCEIrrEX9SQuHdU5sl.jpg",
      "original_language": "zh",
      "original_title": "一吻定情",
      "genre_ids": [
        10749,
        35
      ],
      "backdrop_path": "\/yY7kr7Rgvo8W0Kr3U0bMV8Zq1qM.jpg",
      "adult": false,
      "overview": "After an earthquake destroys Xiang Qin's house, she and her father move in with the family of her father's college buddy. To her surprise, her new kind and amicable aunt and uncle are the parents of her cold and distant schoolmate, Jiang Zhi Shu, a genius with an IQ of 200 whom not too long ago rejected her when she confessed her feelings for him. Will the close proximity give her a second chance to win Zhi Shu's heart? Or will her love for him end under his cold words?",
      "release_date": "2019-02-14"
    },
    {
      "vote_count": 11992,
      "id": 263115,
      "video": false,
      "vote_average": 7.8,
      "title": "Logan",
      "popularity": 66.318,
      "poster_path": "\/gGBu0hKw9BGddG8RkRAMX7B6NDB.jpg",
      "original_language": "en",
      "original_title": "Logan",
      "genre_ids": [
        28,
        18,
        878
      ],
      "backdrop_path": "\/5pAGnkFYSsFJ99ZxDIYnhQbQFXs.jpg",
      "adult": false,
      "overview": "In the near future, a weary Logan cares for an ailing Professor X in a hideout on the Mexican border. But Logan's attempts to hide from the world and his legacy are upended when a young mutant arrives, pursued by dark forces.",
      "release_date": "2017-02-28"
    },
    {
      "vote_count": 5527,
      "id": 297802,
      "video": false,
      "vote_average": 6.8,
      "title": "Aquaman",
      "popularity": 66.228,
      "poster_path": "\/5Kg76ldv7VxeX9YlcQXiowHgdX6.jpg",
      "original_language": "en",
      "original_title": "Aquaman",
      "genre_ids": [
        28,
        12,
        14,
        878
      ],
      "backdrop_path": "\/9QusGjxcYvfPD1THg6oW3RLeNn7.jpg",
      "adult": false,
      "overview": "Once home to the most advanced civilization on Earth, Atlantis is now an underwater kingdom ruled by the power-hungry King Orm. With a vast army at his disposal, Orm plans to conquer the remaining oceanic people and then the surface world. Standing in his way is Arthur Curry, Orm's half-human, half-Atlantean brother and true heir to the throne.",
      "release_date": "2018-12-07"
    },
    {
      "vote_count": 15091,
      "id": 1726,
      "video": false,
      "vote_average": 7.5,
      "title": "Iron Man",
      "popularity": 62.714,
      "poster_path": "\/848chlIWVT41VtAAgyh9bWymAYb.jpg",
      "original_language": "en",
      "original_title": "Iron Man",
      "genre_ids": [
        28,
        878,
        12
      ],
      "backdrop_path": "\/ZQixhAZx6fH1VNafFXsqa1B8QI.jpg",
      "adult": false,
      "overview": "After being held captive in an Afghan cave, billionaire engineer Tony Stark creates a unique weaponized suit of armor to fight evil.",
      "release_date": "2008-04-30"
    },
    {
      "vote_count": 2314,
      "id": 404368,
      "video": false,
      "vote_average": 7.2,
      "title": "Ralph Breaks the Internet",
      "popularity": 62.526,
      "poster_path": "\/lvfIaThG5HA8THf76nghKinjjji.jpg",
      "original_language": "en",
      "original_title": "Ralph Breaks the Internet",
      "genre_ids": [
        10751,
        16,
        35,
        14
      ],
      "backdrop_path": "\/88poTBTafMXaz73vYi3c74g0y2k.jpg",
      "adult": false,
      "overview": "Video game bad guy Ralph and fellow misfit Vanellope von Schweetz must risk it all by traveling to the World Wide Web in search of a replacement part to save Vanellope's video game, \"Sugar Rush.\" In way over their heads, Ralph and Vanellope rely on the citizens of the internet -- the netizens -- to help navigate their way, including an entrepreneur named Yesss, who is the head algorithm and the heart and soul of trend-making site BuzzzTube.",
      "release_date": "2018-11-20"
    },
    {
      "vote_count": 24,
      "id": 485811,
      "video": false,
      "vote_average": 4.1,
      "title": "Redcon-1",
      "popularity": 62.473,
      "poster_path": "\/jOYUbe61DQiY628inVkR1KERS30.jpg",
      "original_language": "en",
      "original_title": "Redcon-1",
      "genre_ids": [
        28,
        27
      ],
      "backdrop_path": "\/palbhPOSYf2g1p18vWd91dDhZLM.jpg",
      "adult": false,
      "overview": "After a zombie apocalypse spreads from a London prison, the UK is brought to its knees. The spread of the virus is temporarily contained but, without a cure, it’s only a matter of time before it breaks its boundaries and the biggest problem of all… any zombies with combat skills are now enhanced. With the South East of England quarantined from the rest of the world using fortified borders, intelligence finds that the scientist responsible for the outbreak is alive and well in London. With his recovery being the only hope of a cure, a squad of eight Special Forces soldiers is sent on a suicide mission to the city, now ruled by the undead, with a single task: get him out alive within 72 hours by any means necessary. What emerges is an unlikely pairing on a course to save humanity against ever-rising odds.",
      "release_date": "2018-09-28"
    },
    {
      "vote_count": 72,
      "id": 453755,
      "video": false,
      "vote_average": 6.7,
      "title": "Arctic",
      "popularity": 61.876,
      "poster_path": "\/w9GVlRteCgY103DN8CdFik3HUhO.jpg",
      "original_language": "en",
      "original_title": "Arctic",
      "genre_ids": [
        53,
        18,
        12
      ],
      "backdrop_path": "\/adNNHvX31BATsQjSBurupj0gt30.jpg",
      "adult": false,
      "overview": "A man stranded in the Arctic is finally about to receive his long awaited rescue. However, after a tragic accident, his opportunity is lost and he must then decide whether to remain in the relative safety of his camp or embark on a deadly trek through the unknown for potential salvation.",
      "release_date": "2018-07-26"
    },
    {
      "vote_count": 66,
      "id": 411728,
      "video": false,
      "vote_average": 7.2,
      "title": "The Professor and the Madman",
      "popularity": 61.255,
      "poster_path": "\/gtGCDLhfjW96qVarwctnuTpGOtD.jpg",
      "original_language": "en",
      "original_title": "The Professor and the Madman",
      "genre_ids": [
        18,
        36,
        9648
      ],
      "backdrop_path": "\/zhNfM1CSQqJtIqelwlK9iKtSd9P.jpg",
      "adult": false,
      "overview": "Professor James Murray begins work compiling words for the first edition of the Oxford English Dictionary in the mid 19th century and receives over 10,000 entries from a patient at Broadmoor Criminal Lunatic Asylum , Dr William Minor.",
      "release_date": "2019-03-07"
    },
    {
      "vote_count": 45,
      "id": 390634,
      "video": false,
      "vote_average": 4.8,
      "title": "Fate\/stay night: Heaven’s Feel II. lost butterfly",
      "popularity": 58.871,
      "poster_path": "\/4tS0iyKQBDFqVpVcH21MSJwXZdq.jpg",
      "original_language": "ja",
      "original_title": "劇場版「Fate\/stay night [Heaven's Feel] ⅠⅠ. lost butterfly」",
      "genre_ids": [
        16,
        28,
        14,
        12
      ],
      "backdrop_path": "\/2zKusjJZd8b2Cdk2C5K9dGFNWiJ.jpg",
      "adult": false,
      "overview": "Theatrical-release adaptation of the visual novel \"Fate\/stay night\", following the third and final route. (Part 2 of a trilogy.)",
      "release_date": "2019-01-12"
    },
    {
      "vote_count": 189,
      "id": 515248,
      "video": false,
      "vote_average": 6.9,
      "title": "Someone Great",
      "popularity": 58.468,
      "poster_path": "\/h0nz5lIBXeUZChBNfwL08bLWQaU.jpg",
      "original_language": "en",
      "original_title": "Someone Great",
      "genre_ids": [
        35,
        10749
      ],
      "backdrop_path": "\/dR8MOgGYQj5uIWbkRSAb5aFKyBA.jpg",
      "adult": false,
      "overview": "An aspiring music journalist lands her dream job and is about to move to San Francisco when her boyfriend of nine years decides to call it quits. To nurse her broken heart, she and her two best friends spend one outrageous last adventure in New York City.",
      "release_date": "2019-04-19"
    },
    {
      "vote_count": 1318,
      "id": 504172,
      "video": false,
      "vote_average": 6.4,
      "title": "The Mule",
      "popularity": 58.282,
      "poster_path": "\/oeZh7yEz3PMnZLgBPhrafFHRbVz.jpg",
      "original_language": "en",
      "original_title": "The Mule",
      "genre_ids": [
        80,
        18,
        53
      ],
      "backdrop_path": "\/bTeRgkAavyw1eCtSkaww18wLYNP.jpg",
      "adult": false,
      "overview": "Earl Stone, a man in his 80s, is broke, alone, and facing foreclosure of his business when he is offered a job that simply requires him to drive. Easy enough, but, unbeknownst to Earl, he’s just signed on as a drug courier for a Mexican cartel. He does so well that his cargo increases exponentially, and Earl hit the radar of hard-charging DEA agent Colin Bates.",
      "release_date": "2018-12-14"
    },
    {
      "vote_count": 13487,
      "id": 271110,
      "video": false,
      "vote_average": 7.3,
      "title": "Captain America: Civil War",
      "popularity": 58.167,
      "poster_path": "\/kSBXou5Ac7vEqKd97wotJumyJvU.jpg",
      "original_language": "en",
      "original_title": "Captain America: Civil War",
      "genre_ids": [
        12,
        28,
        878
      ],
      "backdrop_path": "\/yi3hZ4mQq8JGyJSi3MBW5nMj1f.jpg",
      "adult": false,
      "overview": "Following the events of Age of Ultron, the collective governments of the world pass an act designed to regulate all superhuman activity. This polarizes opinion amongst the Avengers, causing two factions to side with Iron Man or Captain America, which causes an epic battle between former allies.",
      "release_date": "2016-04-27"
    },
    {
      "vote_count": 7866,
      "id": 137113,
      "video": false,
      "vote_average": 7.6,
      "title": "Edge of Tomorrow",
      "popularity": 57.24,
      "poster_path": "\/tpoVEYvm6qcXueZrQYJNRLXL88s.jpg",
      "original_language": "en",
      "original_title": "Edge of Tomorrow",
      "genre_ids": [
        28,
        878
      ],
      "backdrop_path": "\/7mgKeg18Qml5nJQa56RBZO7dIu0.jpg",
      "adult": false,
      "overview": "Major Bill Cage is an officer who has never seen a day of combat when he is unceremoniously demoted and dropped into combat. Cage is killed within minutes, managing to take an alpha alien down with him. He awakens back at the beginning of the same day and is forced to fight and die again... and again - as physical contact with the alien has thrown him into a time loop.",
      "release_date": "2014-05-27"
    }
  ]
}